{
  "_class": "document",
  "assets": {
    "_class": "assetCollection",
    "colors": [],
    "gradients": [],
    "imageCollection": {
      "_class": "imageCollection",
      "images": {}
    },
    "images": []
  },
  "currentPageIndex": 0,
  "do_objectID": "1380534F-43B9-4A86-B3F8-FF00DA072AFE",
  "enableLayerInteraction": true,
  "enableSliceInteraction": true,
  "foreignSymbols": [],
  "layerStyles": {
    "_class": "sharedStyleContainer",
    "objects": []
  },
  "layerSymbols": {
    "_class": "symbolContainer",
    "objects": []
  },
  "layerTextStyles": {
    "_class": "sharedTextStyleContainer",
    "objects": []
  },
  "pages": [
    {
      "_class": "MSJSONFileReference",
      "_ref": "pages/B493E4D5-1701-446E-ACD4-CE3C9D393E26",
      "_ref_class": "MSImmutablePage"
    }
  ]
}
